\relax 
\providecommand\hyper@newdestlabel[2]{}
\providecommand\BKM@entry[2]{}
\providecommand*{\memsetcounter}[2]{}
\providecommand\HyperFirstAtBeginDocument{\AtBeginDocument}
\HyperFirstAtBeginDocument{\ifx\hyper@anchor\@undefined
\global\let\oldcontentsline\contentsline
\gdef\contentsline#1#2#3#4{\oldcontentsline{#1}{#2}{#3}}
\global\let\oldnewlabel\newlabel
\gdef\newlabel#1#2{\newlabelxx{#1}#2}
\gdef\newlabelxx#1#2#3#4#5#6{\oldnewlabel{#1}{{#2}{#3}}}
\AtEndDocument{\ifx\hyper@anchor\@undefined
\let\contentsline\oldcontentsline
\let\newlabel\oldnewlabel
\fi}
\fi}
\global\let\hyper@last\relax 
\gdef\HyperFirstAtBeginDocument#1{#1}
\providecommand\HyField@AuxAddToFields[1]{}
\providecommand\HyField@AuxAddToCoFields[2]{}
\catcode `"\active 
\citation{abnt-url-package=url}
\BKM@entry{id=1,dest={6368617074657262312E30},srcline={51}}{466F6C686120646520726F73746F}
\@writefile{toc}{\changetocdepth  {4}}
\select@language{brazil}
\@writefile{toc}{\select@language{brazil}}
\@writefile{lof}{\select@language{brazil}}
\@writefile{lot}{\select@language{brazil}}
\BKM@entry{id=2,dest={636861707465722E31},srcline={62}}{496E74726F64755C3334375C3334336F}
\@writefile{toc}{\contentsline {chapter}{\chapternumberline {1}\MakeTextUppercase  {Introdu\IeC {\c c}\IeC {\~a}o}}{2}{chapter.1}}
\newlabel{cap:introducao}{{\M@TitleReference {1}{\MakeTextUppercase  {Introdu\IeC {\c c}\IeC {\~a}o}}}{2}{Introdução}{chapter.1}{}}
\BKM@entry{id=3,dest={636861707465722E32},srcline={76}}{436F6D706F7274616D656E746F20646F20616C676F7269746D6F}
\citation{andre2009}
\citation{andre2009}
\citation{andre2009}
\citation{andre2009}
\citation{andre2009}
\citation{andre2009}
\citation{andre2009}
\citation{andre2009}
\citation{andre2009}
\citation{andre2009}
\citation{andre2009}
\citation{andre2009}
\@writefile{toc}{\contentsline {chapter}{\chapternumberline {2}\MakeTextUppercase  {Comportamento do algoritmo}}{3}{chapter.2}}
\newlabel{cap:comportamento-do-algoritmo}{{\M@TitleReference {2}{\MakeTextUppercase  {Comportamento do algoritmo}}}{3}{Comportamento do algoritmo}{chapter.2}{}}
\@writefile{lof}{\contentsline {figure}{\numberline {1}{\ignorespaces Heur\IeC {\'\i }stica de descida.\relax }}{3}{figure.caption.2}}
\providecommand*\caption@xref[2]{\@setref\relax\@undefined{#1}}
\newlabel{fig:graf1}{{\M@TitleReference {1}{Heur\IeC {\'\i }stica de descida.\relax }}{3}{Heurística de descida.\relax }{figure.caption.2}{}}
\newlabel{}{{\M@TitleReference {1}{Heur\IeC {\'\i }stica de descida.\relax }}{3}{Heurística de descida.\relax }{figure.caption.2}{}}
\@writefile{lof}{\contentsline {figure}{\numberline {2}{\ignorespaces \IeC {\'O}timo Local.\relax }}{3}{figure.caption.3}}
\newlabel{fig:graf2}{{\M@TitleReference {2}{\IeC {\'O}timo Local.\relax }}{3}{Ótimo Local.\relax }{figure.caption.3}{}}
\newlabel{}{{\M@TitleReference {2}{\IeC {\'O}timo Local.\relax }}{3}{Ótimo Local.\relax }{figure.caption.3}{}}
\@writefile{lof}{\contentsline {figure}{\numberline {3}{\ignorespaces Caminha para melhor vizinho, podendo ser ele de piora.\relax }}{4}{figure.caption.4}}
\newlabel{fig:graf3}{{\M@TitleReference {3}{Caminha para melhor vizinho, podendo ser ele de piora.\relax }}{4}{Caminha para melhor vizinho, podendo ser ele de piora.\relax }{figure.caption.4}{}}
\newlabel{}{{\M@TitleReference {3}{Caminha para melhor vizinho, podendo ser ele de piora.\relax }}{4}{Caminha para melhor vizinho, podendo ser ele de piora.\relax }{figure.caption.4}{}}
\@writefile{lof}{\contentsline {figure}{\numberline {4}{\ignorespaces Cria uma lista tabu.\relax }}{4}{figure.caption.5}}
\newlabel{fig:graf4}{{\M@TitleReference {4}{Cria uma lista tabu.\relax }}{4}{Cria uma lista tabu.\relax }{figure.caption.5}{}}
\newlabel{}{{\M@TitleReference {4}{Cria uma lista tabu.\relax }}{4}{Cria uma lista tabu.\relax }{figure.caption.5}{}}
\@writefile{lof}{\contentsline {figure}{\numberline {5}{\ignorespaces Lista Tabu.\relax }}{4}{figure.caption.6}}
\newlabel{fig:graf5}{{\M@TitleReference {5}{Lista Tabu.\relax }}{4}{Lista Tabu.\relax }{figure.caption.6}{}}
\newlabel{}{{\M@TitleReference {5}{Lista Tabu.\relax }}{4}{Lista Tabu.\relax }{figure.caption.6}{}}
\@writefile{lof}{\contentsline {figure}{\numberline {6}{\ignorespaces \IeC {\'O}timo Global.\relax }}{5}{figure.caption.7}}
\newlabel{fig:graf6}{{\M@TitleReference {6}{\IeC {\'O}timo Global.\relax }}{5}{Ótimo Global.\relax }{figure.caption.7}{}}
\newlabel{}{{\M@TitleReference {6}{\IeC {\'O}timo Global.\relax }}{5}{Ótimo Global.\relax }{figure.caption.7}{}}
\BKM@entry{id=4,dest={636861707465722E33},srcline={130}}{435C3336336469676F73206520416C676F7269746D6F73}
\citation{grimnes2015}
\citation{grimnes2015}
\citation{grimnes2015}
\citation{grimnes2015}
\citation{grimnes2015}
\citation{grimnes2015}
\citation{grimnes2015}
\bibdata{abntex2-options,referencias}
\@writefile{toc}{\contentsline {chapter}{\chapternumberline {3}\MakeTextUppercase  {C\IeC {\'o}digos e Algoritmos}}{6}{chapter.3}}
\newlabel{sec:codigos}{{\M@TitleReference {3}{\MakeTextUppercase  {C\IeC {\'o}digos e Algoritmos}}}{6}{Códigos e Algoritmos}{chapter.3}{}}
\@writefile{locod}{\contentsline {codigo}{\numberline {1}{\ignorespaces Node Class.\relax }}{6}{codigo.caption.8}}
\newlabel{cod:fib1}{{\M@TitleReference {1}{Node Class.\relax }}{6}{Node Class.\relax }{codigo.caption.8}{}}
\@writefile{locod}{\contentsline {codigo}{\numberline {2}{\ignorespaces Heuristic Method.\relax }}{6}{codigo.caption.9}}
\newlabel{cod:fib2}{{\M@TitleReference {2}{Heuristic Method.\relax }}{6}{Heuristic Method.\relax }{codigo.caption.9}{}}
\@writefile{locod}{\contentsline {codigo}{\numberline {3}{\ignorespaces Search Method.\relax }}{7}{codigo.caption.10}}
\newlabel{cod:fib3}{{\M@TitleReference {3}{Search Method.\relax }}{7}{Search Method.\relax }{codigo.caption.10}{}}
\BKM@entry{id=5,dest={73656374696F6E2A2E3132},srcline={3}}{52454645525C3331324E43494153}
\bibcite{andre2009}{Andr\IeC {\'e} Gomes 2009}
\bibciteEXPL{andre2009}{Andr\IeC {\'e} Gomes}
\bibciteIMPL{andre2009}{Andr\IeC {\'e} Gomes}
\bibciteYEAR{andre2009}{2009}
\bibcite{grimnes2015}{J\IeC {\o }rgen Grimnes 2015}
\bibciteEXPL{grimnes2015}{J\IeC {\o }rgen Grimnes}
\bibciteIMPL{grimnes2015}{J\IeC {\o }rgen Grimnes}
\bibciteYEAR{grimnes2015}{2015}
\bibstyle{abntex2-alf}
\@writefile{toc}{\contentsline {chapter}{REFER\IeC {\^E}NCIAS}{8}{section*.12}}
\memsetcounter{lastsheet}{8}
\memsetcounter{lastpage}{8}
